# Blender v2.81 (sub 16) OBJ File: ''
# www.blender.org
mtllib arrow.mtl
o Plane
v -0.707754 0.000000 0.720000
v 0.707754 0.000000 0.720000
v -0.707754 1.100000 -0.400000
v 0.707754 1.100000 -0.400000
v -0.707754 1.800000 -1.900000
v 0.707754 1.800000 -1.900000
v -0.744255 2.000000 -3.000000
v 0.744255 2.000000 -3.000000
v -0.715803 1.900000 -4.200000
v 0.715803 1.900000 -4.200000
v -0.686452 1.473971 -5.366145
v 0.686452 1.473971 -5.366145
v -0.686452 1.000000 -6.400000
v 0.686452 1.000000 -6.400000
v -1.372904 1.000000 -6.400000
v 1.372904 1.000000 -6.400000
v 0.000000 0.000000 -7.660000
vt 0.000000 0.000000
vt 1.000000 0.000000
vt 1.000000 1.000000
vt 0.000000 1.000000
vt 1.000000 1.000000
vt 0.000000 1.000000
vt 1.000000 1.000000
vt 0.000000 1.000000
vt 1.000000 1.000000
vt 0.000000 1.000000
vt 1.000000 1.000000
vt 0.000000 1.000000
vt 1.000000 1.000000
vt 0.000000 1.000000
vt 1.000000 1.000000
vt 0.000000 1.000000
vt 0.000000 1.000000
vn 0.0000 0.7134 0.7007
vn 0.0000 0.9062 0.4229
vn 0.0000 0.9839 0.1789
vn 0.0000 0.9965 -0.0830
vn 0.0000 0.9393 -0.3431
vn 0.0000 0.9090 -0.4167
vn 0.0000 0.0000 1.0000
vn 0.0000 0.7833 -0.6217
usemtl None
s off
f 1/1/1 2/2/1 4/3/1 3/4/1
f 3/4/2 4/3/2 6/5/2 5/6/2
f 5/6/3 6/5/3 8/7/3 7/8/3
f 7/8/4 8/7/4 10/9/4 9/10/4
f 9/10/5 10/9/5 12/11/5 11/12/5
f 11/12/6 12/11/6 14/13/6 13/14/6
f 13/14/7 14/13/7 16/15/7 15/16/7
f 15/16/8 16/15/8 17/17/8
